==> winnow-hilog-movie_10000.tmp <==
End XSB (cputime 186.20 secs, elapsetime 186.22 secs)

==> winnow-hilog-movie_1000.tmp <==
End XSB (cputime 1.65 secs, elapsetime 1.65 secs)

==> winnow-hilog-movie_100.tmp <==
End XSB (cputime 0.04 secs, elapsetime 0.19 secs)

==> winnow-hilog-movie_2000.tmp <==
End XSB (cputime 12.31 secs, elapsetime 12.33 secs)

==> winnow-hilog-movie_4000.tmp <==
End XSB (cputime 68.30 secs, elapsetime 68.38 secs)

==> winnow-hilog-movie_500.tmp <==
End XSB (cputime 0.65 secs, elapsetime 0.65 secs)

==> winnow-hilog-movie_8000.tmp <==
End XSB (cputime 106.52 secs, elapsetime 106.55 secs)

==> winnow-hilog-table-movie_10000.tmp <==
End XSB (cputime 1.75 secs, elapsetime 1.79 secs)

==> winnow-hilog-table-movie_1000.tmp <==
End XSB (cputime 0.05 secs, elapsetime 0.05 secs)

==> winnow-hilog-table-movie_100.tmp <==
End XSB (cputime 0.01 secs, elapsetime 0.06 secs)

==> winnow-hilog-table-movie_2000.tmp <==
End XSB (cputime 0.15 secs, elapsetime 0.16 secs)

==> winnow-hilog-table-movie_4000.tmp <==
End XSB (cputime 0.64 secs, elapsetime 0.66 secs)

==> winnow-hilog-table-movie_500.tmp <==
End XSB (cputime 0.02 secs, elapsetime 0.03 secs)

==> winnow-hilog-table-movie_8000.tmp <==
End XSB (cputime 1.15 secs, elapsetime 1.17 secs)

==> winnow-prolog-movie_10000.tmp <==
End XSB (cputime 408.96 secs, elapsetime 409.01 secs)

==> winnow-prolog-movie_1000.tmp <==
End XSB (cputime 3.42 secs, elapsetime 3.43 secs)

==> winnow-prolog-movie_100.tmp <==
End XSB (cputime 0.06 secs, elapsetime 0.07 secs)

==> winnow-prolog-movie_2000.tmp <==
End XSB (cputime 27.03 secs, elapsetime 27.04 secs)

==> winnow-prolog-movie_4000.tmp <==
End XSB (cputime 151.97 secs, elapsetime 152.00 secs)

==> winnow-prolog-movie_500.tmp <==
End XSB (cputime 1.36 secs, elapsetime 1.36 secs)

==> winnow-prolog-movie_8000.tmp <==
End XSB (cputime 232.54 secs, elapsetime 232.56 secs)

==> winnow-prolog-table-movie_10000.tmp <==
End XSB (cputime 40.53 secs, elapsetime 40.57 secs)

==> winnow-prolog-table-movie_1000.tmp <==
End XSB (cputime 0.32 secs, elapsetime 0.33 secs)

==> winnow-prolog-table-movie_100.tmp <==
End XSB (cputime 0.02 secs, elapsetime 0.14 secs)

==> winnow-prolog-table-movie_2000.tmp <==
End XSB (cputime 2.68 secs, elapsetime 2.68 secs)

==> winnow-prolog-table-movie_4000.tmp <==
End XSB (cputime 14.93 secs, elapsetime 14.95 secs)

==> winnow-prolog-table-movie_500.tmp <==
End XSB (cputime 0.13 secs, elapsetime 0.13 secs)

==> winnow-prolog-table-movie_8000.tmp <==
End XSB (cputime 23.02 secs, elapsetime 23.06 secs)
