gen_union-hilog-gdata_1000.tmp:% 0.016 CPU in 0.017000000000000001 seconds (94% CPU)
gen_union-hilog-gdata_2000.tmp:% 0.016 CPU in 0.017999999999999999 seconds (88% CPU)
gen_union-hilog-gdata_4000.tmp:% 0.02 CPU in 0.036999999999999998 seconds (54% CPU)
gen_union-hilog-gdata_6000.tmp:% 0.035999999999999997 CPU in 0.053999999999999999 seconds (66% CPU)
gen_union-hilog-gdata_8000.tmp:% 0.080000000000000002 CPU in 0.094 seconds (85% CPU)
gen_union-hilog-table-gdata_1000.tmp:% 0.012 CPU in 0.012 seconds (100% CPU)
gen_union-hilog-table-gdata_2000.tmp:% 0.024 CPU in 0.024 seconds (100% CPU)
gen_union-hilog-table-gdata_4000.tmp:% 0.040000000000000001 CPU in 0.047 seconds (85% CPU)
gen_union-hilog-table-gdata_6000.tmp:% 0.081000000000000003 CPU in 0.105 seconds (77% CPU)
gen_union-hilog-table-gdata_8000.tmp:% 0.091999999999999998 CPU in 0.13800000000000001 seconds (66% CPU)
gen_union-swi-prolog-gdata_1000.tmp:% 15,026 inferences, 0.006 CPU in 0.006 seconds (100% CPU, 2554823 Lips)
gen_union-swi-prolog-gdata_2000.tmp:% 30,026 inferences, 0.014 CPU in 0.014 seconds (100% CPU, 2095011 Lips)
gen_union-swi-prolog-gdata_4000.tmp:% 60,026 inferences, 0.024 CPU in 0.024 seconds (100% CPU, 2462922 Lips)
gen_union-swi-prolog-gdata_6000.tmp:% 90,026 inferences, 0.035 CPU in 0.035 seconds (100% CPU, 2560153 Lips)
gen_union-swi-prolog-gdata_8000.tmp:% 120,026 inferences, 0.048 CPU in 0.048 seconds (100% CPU, 2479179 Lips)
gen_union-xsb-prolog-gdata_1000.tmp:% 0.012 CPU in 0.016 seconds (75% CPU)
gen_union-xsb-prolog-gdata_2000.tmp:% 0.012 CPU in 0.017999999999999999 seconds (66% CPU)
gen_union-xsb-prolog-gdata_4000.tmp:% 0.028000000000000001 CPU in 0.034000000000000002 seconds (82% CPU)
gen_union-xsb-prolog-gdata_6000.tmp:% 0.043999999999999997 CPU in 0.070000000000000007 seconds (62% CPU)
gen_union-xsb-prolog-gdata_8000.tmp:% 0.051999999999999998 CPU in 0.069000000000000006 seconds (75% CPU)
gen_union-xsb-prolog-table-gdata_1000.tmp:% 0.012 CPU in 0.019 seconds (63% CPU)
gen_union-xsb-prolog-table-gdata_2000.tmp:% 0.024 CPU in 0.035999999999999997 seconds (66% CPU)
gen_union-xsb-prolog-table-gdata_4000.tmp:% 0.056000000000000001 CPU in 0.070999999999999994 seconds (78% CPU)
gen_union-xsb-prolog-table-gdata_6000.tmp:% 0.048000000000000001 CPU in 0.062 seconds (77% CPU)
gen_union-xsb-prolog-table-gdata_8000.tmp:% 0.071999999999999995 CPU in 0.11 seconds (65% CPU)
gen_union-yap-prolog-gdata_1000.tmp:result=4135% 0.004 CPU in 0.004 seconds (100% CPU)
gen_union-yap-prolog-gdata_2000.tmp:r% 0.012 CPU in 0.012 seconds (100% CPU)
gen_union-yap-prolog-gdata_4000.tmp:resu% 0.020 CPU in 0.022 seconds ( 90% CPU)
gen_union-yap-prolog-gdata_6000.tmp:% 0.032 CPU in 0.039 seconds ( 82% CPU)
gen_union-yap-prolog-gdata_8000.tmp:result=7% 0.036 CPU in 0.039 seconds ( 92% CPU)
