suite,experiment,edb,mode,cputime,elapsetime,results
gen_union,n-5,gdata_1000,hilog,0.73,0.75,5000
gen_union,n-5,gdata_1000,hilog-table,0.08,0.09,4859
gen_union,n-5,gdata_1000,prolog,0.54,0.55,5000
gen_union,n-5,gdata_1000,prolog-table,0.04,0.04,4859
gen_union,n-5,gdata_2000,hilog,1.53,1.69,10000
gen_union,n-5,gdata_2000,hilog-table,0.24,0.26,9494
gen_union,n-5,gdata_2000,prolog,1.18,1.23,10000
gen_union,n-5,gdata_2000,prolog-table,0.06,0.06,9494
gen_union,n-5,gdata_4000,hilog,3.80,3.87,20000
gen_union,n-5,gdata_4000,hilog-table,0.89,0.91,18173
gen_union,n-5,gdata_4000,prolog,2.38,2.44,20000
gen_union,n-5,gdata_4000,prolog-table,0.12,0.15,18173
gen_union,n-5,gdata_6000,hilog,6.58,6.68,30000
gen_union,n-5,gdata_6000,hilog-table,1.92,1.93,25923
gen_union,n-5,gdata_6000,prolog,3.75,3.83,30000
gen_union,n-5,gdata_6000,prolog-table,0.27,0.31,25923
gen_union,n-5,gdata_8000,hilog,9.62,9.75,40000
gen_union,n-5,gdata_8000,hilog-table,3.36,3.39,32945
gen_union,n-5,gdata_8000,prolog,5.39,5.56,40000
gen_union,n-5,gdata_8000,prolog-table,0.42,0.44,32945
