suite,experiment,edb,mode,cputime,elapsetime,results
part6_union,partunion,bdata_1000,hilog,0.09,0.10,6000
part6_union,partunion,bdata_1000,hilog-table,0.04,0.04,6000
part6_union,partunion,bdata_1000,prolog,0.07,0.08,6000
part6_union,partunion,bdata_1000,prolog-table,0.05,0.06,6000
part6_union,partunion,bdata_2000,hilog,0.17,0.20,12000
part6_union,partunion,bdata_2000,hilog-table,0.05,0.06,11999
part6_union,partunion,bdata_2000,prolog,0.14,0.18,12000
part6_union,partunion,bdata_2000,prolog-table,0.07,0.09,11999
part6_union,partunion,bdata_4000,hilog,0.42,0.49,24000
part6_union,partunion,bdata_4000,hilog-table,0.15,0.19,23997
part6_union,partunion,bdata_4000,prolog,0.35,0.38,24000
part6_union,partunion,bdata_4000,prolog-table,0.09,0.12,23997
part6_union,partunion,bdata_6000,hilog,0.60,0.65,36000
part6_union,partunion,bdata_6000,hilog-table,0.16,0.23,36000
part6_union,partunion,bdata_6000,prolog,0.49,0.55,36000
part6_union,partunion,bdata_6000,prolog-table,0.12,0.16,36000
part6_union,partunion,bdata_8000,hilog,0.76,0.83,48000
part6_union,partunion,bdata_8000,hilog-table,0.18,0.24,47998
part6_union,partunion,bdata_8000,prolog,0.66,0.71,48000
part6_union,partunion,bdata_8000,prolog-table,0.12,0.21,47998
