==> part6_union-hilog-bdata_1000.tmp <==
End XSB (cputime 0.09 secs, elapsetime 0.10 secs)

==> part6_union-hilog-bdata_2000.tmp <==
End XSB (cputime 0.17 secs, elapsetime 0.20 secs)

==> part6_union-hilog-bdata_4000.tmp <==
End XSB (cputime 0.42 secs, elapsetime 0.49 secs)

==> part6_union-hilog-bdata_6000.tmp <==
End XSB (cputime 0.60 secs, elapsetime 0.65 secs)

==> part6_union-hilog-bdata_8000.tmp <==
End XSB (cputime 0.76 secs, elapsetime 0.83 secs)

==> part6_union-hilog-table-bdata_1000.tmp <==
End XSB (cputime 0.04 secs, elapsetime 0.04 secs)

==> part6_union-hilog-table-bdata_2000.tmp <==
End XSB (cputime 0.05 secs, elapsetime 0.06 secs)

==> part6_union-hilog-table-bdata_4000.tmp <==
End XSB (cputime 0.15 secs, elapsetime 0.19 secs)

==> part6_union-hilog-table-bdata_6000.tmp <==
End XSB (cputime 0.16 secs, elapsetime 0.23 secs)

==> part6_union-hilog-table-bdata_8000.tmp <==
End XSB (cputime 0.18 secs, elapsetime 0.24 secs)

==> part6_union-prolog-bdata_1000.tmp <==
End XSB (cputime 0.07 secs, elapsetime 0.08 secs)

==> part6_union-prolog-bdata_2000.tmp <==
End XSB (cputime 0.14 secs, elapsetime 0.18 secs)

==> part6_union-prolog-bdata_4000.tmp <==
End XSB (cputime 0.35 secs, elapsetime 0.38 secs)

==> part6_union-prolog-bdata_6000.tmp <==
End XSB (cputime 0.49 secs, elapsetime 0.55 secs)

==> part6_union-prolog-bdata_8000.tmp <==
End XSB (cputime 0.66 secs, elapsetime 0.71 secs)

==> part6_union-prolog-table-bdata_1000.tmp <==
End XSB (cputime 0.05 secs, elapsetime 0.06 secs)

==> part6_union-prolog-table-bdata_2000.tmp <==
End XSB (cputime 0.07 secs, elapsetime 0.09 secs)

==> part6_union-prolog-table-bdata_4000.tmp <==
End XSB (cputime 0.09 secs, elapsetime 0.12 secs)

==> part6_union-prolog-table-bdata_6000.tmp <==
End XSB (cputime 0.12 secs, elapsetime 0.16 secs)

==> part6_union-prolog-table-bdata_8000.tmp <==
End XSB (cputime 0.12 secs, elapsetime 0.21 secs)
