suite,experiment,edb,mode,cputime,elapsetime,results
part4_diff,partdiff,bdata_1000,hilog,0.08,0.11,1000
part4_diff,partdiff,bdata_1000,hilog-table,0.02,0.07,1000
part4_diff,partdiff,bdata_1000,prolog,0.06,0.07,1000
part4_diff,partdiff,bdata_1000,prolog-table,0.01,0.19,1000
part4_diff,partdiff,bdata_2000,hilog,0.21,0.22,2000
part4_diff,partdiff,bdata_2000,hilog-table,0.08,0.08,2000
part4_diff,partdiff,bdata_2000,prolog,0.13,0.15,2000
part4_diff,partdiff,bdata_2000,prolog-table,0.01,0.02,2000
part4_diff,partdiff,bdata_4000,hilog,0.50,0.51,4000
part4_diff,partdiff,bdata_4000,hilog-table,0.19,0.20,4000
part4_diff,partdiff,bdata_4000,prolog,0.26,0.28,4000
part4_diff,partdiff,bdata_4000,prolog-table,0.03,0.04,4000
part4_diff,partdiff,bdata_6000,hilog,0.92,0.95,6000
part4_diff,partdiff,bdata_6000,hilog-table,0.41,0.43,6000
part4_diff,partdiff,bdata_6000,prolog,0.38,0.39,6000
part4_diff,partdiff,bdata_6000,prolog-table,0.03,0.04,6000
part4_diff,partdiff,bdata_8000,hilog,1.38,1.42,8000
part4_diff,partdiff,bdata_8000,hilog-table,0.72,0.74,8000
part4_diff,partdiff,bdata_8000,prolog,0.55,0.57,8000
part4_diff,partdiff,bdata_8000,prolog-table,0.04,0.06,8000
