suite,experiment,edb,mode,engine,cputime,elapsetime,results
diff10,exp,gdata_1000,hilog,xsb,0.0040000000000000001,0.0040000000000000001,1000
diff10,exp,gdata_1000,hilog-table,xsb,0.0040000000000000001,0.0060000000000000001,1000
diff10,exp,gdata_1000,prolog,xsb,0.0,0.0040000000000000001,1000
diff10,exp,gdata_1000,prolog-table,xsb,0.0040000000000000001,0.0040000000000000001,1000
diff10,exp,gdata_1000,prolog,swi,0.004,0.004,1000
diff10,exp,gdata_2000,hilog,xsb,0.0080000000000000002,0.0080000000000000002,2000
diff10,exp,gdata_2000,hilog-table,xsb,0.016,0.016,2000
diff10,exp,gdata_2000,prolog,xsb,0.0080000000000000002,0.010999999999999999,2000
diff10,exp,gdata_2000,prolog-table,xsb,0.016,0.014,2000
diff10,exp,gdata_2000,prolog,swi,0.004,0.004,2000
diff10,exp,gdata_4000,hilog,xsb,0.016,0.016,4000
diff10,exp,gdata_4000,hilog-table,xsb,0.028000000000000001,0.029999999999999999,4000
diff10,exp,gdata_4000,prolog,xsb,0.016,0.028000000000000001,4000
diff10,exp,gdata_4000,prolog-table,xsb,0.016,0.021000000000000001,4000
diff10,exp,gdata_4000,prolog,swi,0.009,0.009,4000
diff10,exp,gdata_6000,hilog,xsb,0.024,0.023,6000
diff10,exp,gdata_6000,hilog-table,xsb,0.035999999999999997,0.047,6000
diff10,exp,gdata_6000,prolog,xsb,0.0080000000000000002,0.021999999999999999,6000
diff10,exp,gdata_6000,prolog-table,xsb,0.028000000000000001,0.043999999999999997,6000
diff10,exp,gdata_6000,prolog,swi,0.023,0.023,6000
diff10,exp,gdata_8000,hilog,xsb,0.024,0.031,8000
diff10,exp,gdata_8000,hilog-table,xsb,0.048000000000000001,0.060999999999999999,8000
diff10,exp,gdata_8000,prolog,xsb,0.016,0.029999999999999999,8000
diff10,exp,gdata_8000,prolog-table,xsb,0.028000000000000001,0.036999999999999998,8000
diff10,exp,gdata_8000,prolog,swi,0.018,0.018,8000
diff10,exp,gdata_1000,prolog,yap,0.000,0.002,1000
diff10,exp,gdata_2000,prolog,yap,0.004,0.004,2000
diff10,exp,gdata_4000,prolog,yap,0.008,0.008,4000
diff10,exp,gdata_6000,prolog,yap,0.016,0.015,6000
diff10,exp,gdata_8000,prolog,yap,0.024,0.024,8000