suite,experiment,edb,mode,cputime,elapsetime,results
xt,wt3,movie_100,hilog,0.04,0.09,61
xt,wt3,movie_100,hilog-table,1.80,2.13,61
xt,wt3,movie_100,prolog,1.36,1.39,61
xt,wt3,movie_100,prolog-table,0.01,0.02,61
xt,wt3,movie_500,hilog,0.16,0.16,79
xt,wt3,movie_500,hilog-table,211.61,211.62,79
xt,wt3,movie_500,prolog,168.43,168.44,79
xt,wt3,movie_500,prolog-table,0.13,0.14,79
xt,wt3,movie_1000,hilog,0.41,0.43,83
xt,wt3,movie_1000,hilog-table,1382.53,23.05,83
xt,wt3,movie_1000,prolog,1085.58,18.09,83
xt,wt3,movie_1000,prolog-table,0.48,3.43,83
