==> union5-hilog-gdata_1000.tmp <==
End XSB (cputime 0.69 secs, elapsetime 0.71 secs)

==> union5-hilog-gdata_2000.tmp <==
End XSB (cputime 1.54 secs, elapsetime 1.59 secs)

==> union5-hilog-gdata_4000.tmp <==
End XSB (cputime 3.80 secs, elapsetime 3.87 secs)

==> union5-hilog-gdata_6000.tmp <==
End XSB (cputime 6.47 secs, elapsetime 6.55 secs)

==> union5-hilog-gdata_8000.tmp <==
End XSB (cputime 9.47 secs, elapsetime 9.59 secs)

==> union5-hilog-table-gdata_1000.tmp <==
End XSB (cputime 0.07 secs, elapsetime 0.08 secs)

==> union5-hilog-table-gdata_2000.tmp <==
End XSB (cputime 0.23 secs, elapsetime 0.24 secs)

==> union5-hilog-table-gdata_4000.tmp <==
End XSB (cputime 0.90 secs, elapsetime 0.92 secs)

==> union5-hilog-table-gdata_6000.tmp <==
End XSB (cputime 1.94 secs, elapsetime 1.98 secs)

==> union5-hilog-table-gdata_8000.tmp <==
End XSB (cputime 3.38 secs, elapsetime 3.39 secs)

==> union5-prolog-gdata_1000.tmp <==
End XSB (cputime 0.54 secs, elapsetime 0.55 secs)

==> union5-prolog-gdata_2000.tmp <==
End XSB (cputime 1.12 secs, elapsetime 1.17 secs)

==> union5-prolog-gdata_4000.tmp <==
End XSB (cputime 2.40 secs, elapsetime 2.47 secs)

==> union5-prolog-gdata_6000.tmp <==
End XSB (cputime 3.80 secs, elapsetime 3.92 secs)

==> union5-prolog-gdata_8000.tmp <==
End XSB (cputime 5.32 secs, elapsetime 5.42 secs)

==> union5-prolog-table-gdata_1000.tmp <==
End XSB (cputime 0.04 secs, elapsetime 0.04 secs)

==> union5-prolog-table-gdata_2000.tmp <==
End XSB (cputime 0.04 secs, elapsetime 0.05 secs)

==> union5-prolog-table-gdata_4000.tmp <==
End XSB (cputime 0.14 secs, elapsetime 0.14 secs)

==> union5-prolog-table-gdata_6000.tmp <==
End XSB (cputime 0.26 secs, elapsetime 0.27 secs)

==> union5-prolog-table-gdata_8000.tmp <==
End XSB (cputime 0.41 secs, elapsetime 0.43 secs)
