==> gen_union-hilog-gdata_1000.tmp <==
End XSB (cputime 0.74 secs, elapsetime 0.76 secs)

==> gen_union-hilog-gdata_2000.tmp <==
End XSB (cputime 1.62 secs, elapsetime 1.68 secs)

==> gen_union-hilog-gdata_4000.tmp <==
End XSB (cputime 3.90 secs, elapsetime 3.98 secs)

==> gen_union-hilog-gdata_6000.tmp <==
End XSB (cputime 6.46 secs, elapsetime 6.58 secs)

==> gen_union-hilog-gdata_8000.tmp <==
End XSB (cputime 9.68 secs, elapsetime 9.81 secs)

==> gen_union-hilog-table-gdata_1000.tmp <==
End XSB (cputime 0.09 secs, elapsetime 0.10 secs)

==> gen_union-hilog-table-gdata_2000.tmp <==
End XSB (cputime 0.30 secs, elapsetime 0.30 secs)

==> gen_union-hilog-table-gdata_4000.tmp <==
End XSB (cputime 0.91 secs, elapsetime 0.94 secs)

==> gen_union-hilog-table-gdata_6000.tmp <==
End XSB (cputime 1.98 secs, elapsetime 2.00 secs)

==> gen_union-hilog-table-gdata_8000.tmp <==
End XSB (cputime 3.45 secs, elapsetime 3.48 secs)

==> gen_union-prolog-gdata_1000.tmp <==
End XSB (cputime 0.54 secs, elapsetime 0.56 secs)

==> gen_union-prolog-gdata_2000.tmp <==
End XSB (cputime 1.15 secs, elapsetime 1.17 secs)

==> gen_union-prolog-gdata_4000.tmp <==
End XSB (cputime 2.44 secs, elapsetime 2.52 secs)

==> gen_union-prolog-gdata_6000.tmp <==
End XSB (cputime 3.76 secs, elapsetime 3.86 secs)

==> gen_union-prolog-gdata_8000.tmp <==
End XSB (cputime 5.32 secs, elapsetime 5.43 secs)

==> gen_union-prolog-table-gdata_1000.tmp <==
End XSB (cputime 0.04 secs, elapsetime 0.05 secs)

==> gen_union-prolog-table-gdata_2000.tmp <==
End XSB (cputime 0.10 secs, elapsetime 0.11 secs)

==> gen_union-prolog-table-gdata_4000.tmp <==
End XSB (cputime 0.19 secs, elapsetime 0.24 secs)

==> gen_union-prolog-table-gdata_6000.tmp <==
End XSB (cputime 0.32 secs, elapsetime 0.34 secs)

==> gen_union-prolog-table-gdata_8000.tmp <==
End XSB (cputime 0.47 secs, elapsetime 0.51 secs)
