suite,experiment,edb,mode,engine,cputime,elapsetime,results
gen_conj,n-5,gdata_1000,hilog,xsb,0.41599999999999998,0.41599999999999998,1000
gen_conj,n-5,gdata_1000,hilog-table,xsb,0.087999999999999995,0.091999999999999998,1000
gen_conj,n-5,gdata_1000,prolog,xsb,0.043999999999999997,0.050000000000000003,1000
gen_conj,n-5,gdata_1000,prolog-table,xsb,0.032000000000000001,0.029000000000000001,1000
gen_conj,n-5,gdata_1000,prolog,swi,0.005,0.005,1000
gen_conj,n-5,gdata_2000,hilog,xsb,1.6319999999999999,1.631,2000
gen_conj,n-5,gdata_2000,hilog-table,xsb,0.34399999999999997,0.34499999999999997,2000
gen_conj,n-5,gdata_2000,prolog,xsb,0.17999999999999999,0.182,2000
gen_conj,n-5,gdata_2000,prolog-table,xsb,0.104,0.10199999999999999,2000
gen_conj,n-5,gdata_2000,prolog,swi,0.016,0.016,2000
gen_conj,n-5,gdata_4000,hilog,xsb,6.3479999999999999,6.3550000000000004,4000
gen_conj,n-5,gdata_4000,hilog-table,xsb,1.476,1.4810000000000001,4000
gen_conj,n-5,gdata_4000,prolog,xsb,0.72399999999999998,0.72399999999999998,4000
gen_conj,n-5,gdata_4000,prolog-table,xsb,0.38,0.38500000000000001,4000
gen_conj,n-5,gdata_4000,prolog,swi,0.021,0.021,4000
gen_conj,n-5,gdata_6000,hilog,xsb,14.356,14.368,6000
gen_conj,n-5,gdata_6000,hilog-table,xsb,2.9849999999999999,2.984,6000
gen_conj,n-5,gdata_6000,prolog,xsb,1.6639999999999999,1.6779999999999999,6000
gen_conj,n-5,gdata_6000,prolog-table,xsb,0.85599999999999998,0.85999999999999999,6000
gen_conj,n-5,gdata_6000,prolog,swi,0.029,0.029,6000
gen_conj,n-5,gdata_8000,hilog,xsb,26.852,26.914000000000001,8000
gen_conj,n-5,gdata_8000,hilog-table,xsb,5.2599999999999998,5.2610000000000001,8000
gen_conj,n-5,gdata_8000,prolog,xsb,2.8919999999999999,2.8969999999999998,8000
gen_conj,n-5,gdata_8000,prolog-table,xsb,1.4910000000000001,1.498,8000
gen_conj,n-5,gdata_8000,prolog,swi,0.067,0.067,8000
gen_conj,n-5,gdata_1000,prolog,yap,0.000,0.002,999
gen_conj,n-5,gdata_2000,prolog,yap,0.004,0.004,2000
gen_conj,n-5,gdata_4000,prolog,yap,0.012,0.010,4000
gen_conj,n-5,gdata_6000,prolog,yap,0.016,0.016,6000
gen_conj,n-5,gdata_8000,prolog,yap,0.024,0.022,8000
