suite,experiment,edb,mode,engine,cputime,elapsetime,results
winnow,c1,movie_1000,hilog,xsb,0.016,0.017999999999999999,29
winnow,c1,movie_1000,hilog-table,xsb,0.087999999999999995,0.095000000000000001,29
winnow,c1,movie_1000,prolog,xsb,0.016,0.014999999999999999,29
winnow,c1,movie_1000,prolog-table,xsb,0.059999999999999998,0.090999999999999998,29
winnow,c1,movie_1000,prolog,swi,0.014,0.014,29
winnow,c1,movie_2000,hilog,xsb,0.043999999999999997,0.042999999999999997,36
winnow,c1,movie_2000,hilog-table,xsb,0.24399999999999999,0.25600000000000001,36
winnow,c1,movie_2000,prolog,xsb,0.040000000000000001,0.039,36
winnow,c1,movie_2000,prolog-table,xsb,0.29199999999999998,0.317,36
winnow,c1,movie_2000,prolog,swi,0.035,0.035,36
winnow,c1,movie_4000,hilog,xsb,0.096000000000000002,0.095000000000000001,53
winnow,c1,movie_4000,hilog-table,xsb,0.748,0.78000000000000003,53
winnow,c1,movie_4000,prolog,xsb,0.084000000000000005,0.084000000000000005,53
winnow,c1,movie_4000,prolog-table,xsb,0.78400000000000003,0.82399999999999995,53
winnow,c1,movie_4000,prolog,swi,0.075,0.075,53
winnow,c1,movie_8000,hilog,xsb,0.23999999999999999,0.23899999999999999,86
winnow,c1,movie_8000,hilog-table,xsb,1.7669999999999999,1.9019999999999999,86
winnow,c1,movie_8000,prolog,xsb,0.21199999999999999,0.21199999999999999,86
winnow,c1,movie_8000,prolog-table,xsb,1.9079999999999999,2.0459999999999998,86
winnow,c1,movie_8000,prolog,swi,0.190,0.190,86
winnow,c1,movie_10000,hilog,xsb,0.34000000000000002,0.33900000000000002,110
winnow,c1,movie_10000,hilog-table,xsb,2.6880000000000002,2.8900000000000001,110
winnow,c1,movie_10000,prolog,xsb,0.29999999999999999,0.29899999999999999,110
winnow,c1,movie_10000,prolog-table,xsb,2.532,2.6720000000000002,110
winnow,c1,movie_10000,prolog,swi,0.269,0.269,110
winnow,c1,movie_1000,prolog,yap,0.004,0.004,29
winnow,c1,movie_2000,prolog,yap,0.012,0.011,36
winnow,c1,movie_4000,prolog,yap,0.024,0.025,53
winnow,c1,movie_8000,prolog,yap,0.064,0.065,86
winnow,c1,movie_10000,prolog,yap,0.092,0.090,110
