==> gen_conj-hilog-gdata_1000.tmp <==
End XSB (cputime 1.68 secs, elapsetime 1.71 secs)

==> gen_conj-hilog-gdata_2000.tmp <==
End XSB (cputime 5.21 secs, elapsetime 5.22 secs)

==> gen_conj-hilog-gdata_4000.tmp <==
End XSB (cputime 17.95 secs, elapsetime 18.00 secs)

==> gen_conj-hilog-gdata_6000.tmp <==
End XSB (cputime 38.12 secs, elapsetime 38.22 secs)

==> gen_conj-hilog-gdata_8000.tmp <==
End XSB (cputime 66.51 secs, elapsetime 66.62 secs)

==> gen_conj-hilog-table-gdata_1000.tmp <==
End XSB (cputime 0.48 secs, elapsetime 0.49 secs)

==> gen_conj-hilog-table-gdata_2000.tmp <==
End XSB (cputime 1.83 secs, elapsetime 1.84 secs)

==> gen_conj-hilog-table-gdata_4000.tmp <==
End XSB (cputime 7.19 secs, elapsetime 7.20 secs)

==> gen_conj-hilog-table-gdata_6000.tmp <==
End XSB (cputime 16.24 secs, elapsetime 16.25 secs)

==> gen_conj-hilog-table-gdata_8000.tmp <==
End XSB (cputime 28.68 secs, elapsetime 28.70 secs)

==> gen_conj-prolog-gdata_1000.tmp <==
End XSB (cputime 0.64 secs, elapsetime 0.65 secs)

==> gen_conj-prolog-gdata_2000.tmp <==
End XSB (cputime 1.51 secs, elapsetime 1.54 secs)

==> gen_conj-prolog-gdata_4000.tmp <==
End XSB (cputime 3.93 secs, elapsetime 4.00 secs)

==> gen_conj-prolog-gdata_6000.tmp <==
End XSB (cputime 7.21 secs, elapsetime 7.29 secs)

==> gen_conj-prolog-gdata_8000.tmp <==
End XSB (cputime 11.45 secs, elapsetime 11.58 secs)

==> gen_conj-prolog-table-gdata_1000.tmp <==
End XSB (cputime 0.08 secs, elapsetime 0.08 secs)

==> gen_conj-prolog-table-gdata_2000.tmp <==
End XSB (cputime 0.26 secs, elapsetime 0.26 secs)

==> gen_conj-prolog-table-gdata_4000.tmp <==
End XSB (cputime 0.96 secs, elapsetime 0.97 secs)

==> gen_conj-prolog-table-gdata_6000.tmp <==
End XSB (cputime 2.12 secs, elapsetime 2.12 secs)

==> gen_conj-prolog-table-gdata_8000.tmp <==
End XSB (cputime 3.70 secs, elapsetime 3.72 secs)
